Conditioning – Stat 20
…
Conditioning

Filtering, groupwise operations, and data pipelines.

In the world of data, bigger is not always better. Sometimes there are real benefits to working with a subset of your observations that meet some particular condition. One use of conditioning is to add specificity to a claim. Another use of conditioning is to illuminate the relationship between variables.

To gain practice with conditioning, let’s turn to a data set that begins with a very general focus. In 2007, Savage and West published A qualitative, theoretical framework for understanding mammalian sleep1, wherein they “develop a general, quantitative theory for mammalian sleep that relates many of its fundamental parameters to metabolic rate and body size”. Characterizing the sleep patterns of all mammals is a broad task and their data set is corresponding diverse. Take a look at the first ten rows of their data below.

# A tibble: 83 × 5
   name                       sleep_total log_bodywt vore  conservation
   <chr>                            <dbl>      <dbl> <chr> <chr>       
 1 Cheetah                           12.1      10.8  carni lc          
 2 Owl monkey                        17         6.17 omni  <NA>        
 3 Mountain beaver                   14.4       7.21 herbi nt          
 4 Greater short-tailed shrew        14.9       2.94 omni  lc          
 5 Cow                                4        13.3  herbi domesticated
 6 Three-toed sloth                  14.4       8.26 herbi <NA>        
 7 Northern fur seal                  8.7       9.93 carni vu          
 8 Vesper mouse                       7         3.81 <NA>  <NA>        
 9 Dog                               10.1       9.55 carni domesticated
10 Roe deer                           3         9.60 herbi lc          
# ℹ 73 more rows
…
What year had the greatest total number of christenings?

The original arbuthnot data frame, which captures birth records in 17th century London, in fact records the numbers of boys and girls names that appear in church christening records. To find the year with the greatest total number of christenings requires first the creation of a new column with mutate(), then arrange()ing the rows of that data frame, then select()ing just the rows of interst. As one pipeline, that is:

library(stat20data)

arbuthnot |>
    mutate(total = boys + girls) |>
    arrange(desc(total)) |>
    select(year, total)

# A tibble: 82 × 2
    year total
   <int> <int>
 1  1705 16145
 2  1707 16066
 3  1698 16052
 4  1708 15862
 5  1697 15829
 6  1702 15687
 7  1701 15616
 8  1703 15448
 9  1706 15369
10  1699 15363
# ℹ 72 more rows
…
Like most tidyverse functions, the first argument to group_by() is a data frame, so it can be slotted directly into the pipeline. The second argument, the one that shows up in the code above, is the name of the variable that you want to use to delineate the groups. This is generally a factor, character, or logical vector.

group_by() is an incredibly powerful function because it changes the behavior of downstream functions. Lets break our pipeline and inspect the data frame that comes out of it.

msleep |>
    group_by(vore)

# A tibble: 83 × 5
# Groups:   vore [5]
   name                       sleep_total log_bodywt vore  conservation
   <chr>                            <dbl>      <dbl> <chr> <chr>       
 1 Cheetah                           12.1      10.8  carni lc          
 2 Owl monkey                        17         6.17 omni  <NA>        
 3 Mountain beaver                   14.4       7.21 herbi nt          
 4 Greater short-tailed shrew        14.9       2.94 omni  lc          
 5 Cow                                4        13.3  herbi domesticated
 6 Three-toed sloth                  14.4       8.26 herbi <NA>        
 7 Northern fur seal                  8.7       9.93 carni vu          
 8 Vesper mouse                       7         3.81 <NA>  <NA>        
 9 Dog                               10.1       9.55 carni domesticated
10 Roe deer                           3         9.60 herbi lc          
# ℹ 73 more rows
…
