Summarizing Numerical Associations – Stat 20
…
Correlation coefficient, \(r\)

The correlation coefficient, \(r\), between two variables \(x\) and \(y\) is \[r = \frac{1}{n-1}\sum_{i=1}^n \left( \frac{x_i - \bar{x}}{s_x} \right) \left( \frac{y_i - \bar{y}}{s_y} \right)\]

Several different statistics have been proposed for measuring association. This is the most common and is more specifically called the Pearson correlation.

Example: Poverty and Graduation rate

The data frame used to create the scatter plot above on the left looks like this.

select(poverty, Graduates, Poverty)

# A tibble: 51 × 2
   Graduates Poverty
       <dbl>   <dbl>
 1      79.9    14.6
 2      90.6     8.3
 3      83.8    13.3
 4      80.9    18  
 5      81.1    12.8
 6      88.7     9.4
 7      87.5     7.8
 8      88.7     8.1
 9      86      16.8
10      84.7    12.1
# ℹ 41 more rows
…
