Logistic Regression – Stat 20
…
Evaluating predictive accuracy using a test data set: we calculated testing \(R^2\)/\(\text{MSE}\) using ~20% of the data that was withheld

We used this process to build our first simple linear regression model to predict high school graduation rates but the same four steps are used by Zillow to build ZestimateTM, their deep learning model to predict house price.

These are also the same four steps that we will use as we shift in these notes to the task of classification. In a classification task, we seek to predict a response variable that is categorical, very often a two-level categorical variable. Classification models are everywhere: they help doctors determine whether or not a patient has a disease, whether or not an image contains a particular object (say, a person or a cat), and whether or not customer will purchase an item.

Example: Spam filters

Email spam, also referred to as junk email or simply spam, is unsolicited messages sent in bulk by email (spamming). The name comes from a Monty Python sketch in which the name of the canned pork product Spam is ubiquitous, unavoidable, and repetitive1. A spam filter is a classification model that determines whether or not a message is spam based on properties of that message. Every mainstream email client, including Gmail, has a spam filter built in to ensure that the messages that get through to the user are genuine messages.

The Data

In order to build a spam filter, we’ll need a data set to train our model on. This data set must have as the unit of observation a single email message, record whether or not the message was spam (the response), and record various features of the message that are associated with being spam (the predictors). Such a data set, with nearly 4000 observations, can be found in the email data frame in the openintro library.

# A tibble: 3,921 × 21
   spam  to_multiple from     cc sent_email time                image attach
   <fct> <fct>       <fct> <int> <fct>      <dttm>              <dbl>  <dbl>
 1 0     0           1         0 0          2012-01-01 06:16:41     0      0
 2 0     0           1         0 0          2012-01-01 07:03:59     0      0
 3 0     0           1         0 0          2012-01-01 16:00:32     0      0
 4 0     0           1         0 0          2012-01-01 09:09:49     0      0
 5 0     0           1         0 0          2012-01-01 10:00:01     0      0
 6 0     0           1         0 0          2012-01-01 10:04:46     0      0
 7 0     1           1         0 1          2012-01-01 17:55:06     0      0
 8 0     1           1         1 1          2012-01-01 18:45:21     1      1
 9 0     0           1         0 0          2012-01-01 21:08:59     0      0
10 0     0           1         0 0          2012-01-01 18:12:00     0      0
# ℹ 3,911 more rows
# ℹ 13 more variables: dollar <dbl>, winner <fct>, inherit <dbl>, viagra <dbl>,
#   password <dbl>, num_char <dbl>, line_breaks <int>, format <fct>,
#   re_subj <fct>, exclaim_subj <dbl>, urgent_subj <fct>, exclaim_mess <dbl>,
#   number <fct>
…
