Multiple Linear Regression – Stat 20
…
In addition to learning about the food scores (27), and getting some helpful tips (“bring your bank manager”), we see they’ve also recorded a few more variables on this restaurant: the phone number and website, their opening hours, and the neighborhood (Midtown).

You might ask:

What is the relationship between the food quality and the price of a meal at Italian restaurant? Are these two variables positively correlated or is the best Italian meal in New York a simple and inexpensive slice of pizza?

To answer these questions, we need more data. The data frame below contains Zagat reviews from 168 Italian restaurants in Manhattan.

# A tibble: 168 × 6
   restaurant          price  food decor service geo  
   <chr>               <dbl> <dbl> <dbl>   <dbl> <chr>
 1 Daniella Ristorante    43    22    18      20 west 
 2 Tello's Ristorante     32    20    19      19 west 
 3 Biricchino             34    21    13      18 west 
 4 Bottino                41    20    20      17 west 
 5 Da Umberto             54    24    19      21 west 
 6 Le Madri               52    22    22      21 west 
 7 Le Zie                 34    22    16      21 west 
 8 Pasticcio              34    20    18      21 east 
 9 Belluno                39    22    19      22 east 
10 Cinque Terre           44    21    17      19 east 
# ℹ 158 more rows
…
\[\widehat{price} = -15.97 + 2.87 \times food - 1.45 \times geo\]

What does it mean to put a categorical variable, geo, into a linear model? And how do three three numbers translate into the two lines shown above?

Indicator variables

When working with linear models like the one above, the value of the explanatory variable, \(geowest\), is multiplied by a slope, 1.45. According to the Taxonomy of Data, arithmetic functions like multiplication are only defined for numerical variables. While that would seem to rule out categorical variables for use as explanatory variables, statisticians have come up with a clever work-around: the dummy variable.

Dummy Variable

A variable that is 1 if an observation takes a particular level of a categorical variable and 0 otherwise. A categorical variable with \(k\) levels can be encoded using \(k-1\) dummuy variables.

The categorical variable geo can be converted into an dummy variable by shifting the question from “Which side of Manhattan are you on?” to “Are you on the west side of Manhattan?” This is a mutate step.

# A tibble: 168 × 4
    food price geo   geowest
   <dbl> <dbl> <chr> <lgl>  
 1    22    43 west  TRUE   
 2    20    32 west  TRUE   
 3    21    34 west  TRUE   
 4    20    41 west  TRUE   
 5    24    54 west  TRUE   
 6    22    52 west  TRUE   
 7    22    34 west  TRUE   
 8    20    34 east  FALSE  
 9    22    39 east  FALSE  
10    21    44 east  FALSE  
# ℹ 158 more rows
…
